molino/simulation/qsim/molino.msim.vcd
$comment
	File created using the following command:
		vcd file molino.msim.vcd -direction
$end
$date
	Mon Oct 05 19:07:13 2020
$end
$version
	ModelSim Version 2020.1
$end
$timescale
	1ps
$end

$scope module molino_vhd_vec_tst $end
$var wire 1 ! clk $end
$var wire 1 " I $end
$var wire 1 # M1 $end
$var wire 1 $ M2 $end
$var wire 1 % S $end

$scope module i1 $end
$var wire 1 & gnd $end
$var wire 1 ' vcc $end
$var wire 1 ( unknown $end
$var wire 1 ) devoe $end
$var wire 1 * devclrn $end
$var wire 1 + devpor $end
$var wire 1 , ww_devoe $end
$var wire 1 - ww_devclrn $end
$var wire 1 . ww_devpor $end
$var wire 1 / ww_clk $end
$var wire 1 0 ww_S $end
$var wire 1 1 ww_I $end
$var wire 1 2 ww_M1 $end
$var wire 1 3 ww_M2 $end
$var wire 1 4 \~QUARTUS_CREATED_ADC1~_CHSEL_bus\ [4] $end
$var wire 1 5 \~QUARTUS_CREATED_ADC1~_CHSEL_bus\ [3] $end
$var wire 1 6 \~QUARTUS_CREATED_ADC1~_CHSEL_bus\ [2] $end
$var wire 1 7 \~QUARTUS_CREATED_ADC1~_CHSEL_bus\ [1] $end
$var wire 1 8 \~QUARTUS_CREATED_ADC1~_CHSEL_bus\ [0] $end
$var wire 1 9 \~QUARTUS_CREATED_ADC2~_CHSEL_bus\ [4] $end
$var wire 1 : \~QUARTUS_CREATED_ADC2~_CHSEL_bus\ [3] $end
$var wire 1 ; \~QUARTUS_CREATED_ADC2~_CHSEL_bus\ [2] $end
$var wire 1 < \~QUARTUS_CREATED_ADC2~_CHSEL_bus\ [1] $end
$var wire 1 = \~QUARTUS_CREATED_ADC2~_CHSEL_bus\ [0] $end
$var wire 1 > \clk~inputclkctrl_INCLK_bus\ [3] $end
$var wire 1 ? \clk~inputclkctrl_INCLK_bus\ [2] $end
$var wire 1 @ \clk~inputclkctrl_INCLK_bus\ [1] $end
$var wire 1 A \clk~inputclkctrl_INCLK_bus\ [0] $end
$var wire 1 B \~QUARTUS_CREATED_GND~I_combout\ $end
$var wire 1 C \~QUARTUS_CREATED_UNVM~~busy\ $end
$var wire 1 D \~QUARTUS_CREATED_ADC1~~eoc\ $end
$var wire 1 E \~QUARTUS_CREATED_ADC2~~eoc\ $end
$var wire 1 F \M1~output_o\ $end
$var wire 1 G \M2~output_o\ $end
$var wire 1 H \clk~input_o\ $end
$var wire 1 I \clk~inputclkctrl_outclk\ $end
$var wire 1 J \I~input_o\ $end
$var wire 1 K \S~input_o\ $end
$var wire 1 L \Selector2~0_combout\ $end
$var wire 1 M \state.lleno~q\ $end
$var wire 1 N \Selector1~0_combout\ $end
$var wire 1 O \state.medio~q\ $end
$var wire 1 P \Selector0~0_combout\ $end
$var wire 1 Q \Selector0~1_combout\ $end
$var wire 1 R \state.vacio~q\ $end
$var wire 1 S \M1~reg0feeder_combout\ $end
$var wire 1 T \M1~reg0_q\ $end
$var wire 1 U \M2~reg0feeder_combout\ $end
$var wire 1 V \M2~reg0_q\ $end
$upscope $end
$upscope $end
$enddefinitions $end
#0
$dumpvars
0!
0"
0#
0$
0%
0&
1'
x(
1)
1*
1+
1,
1-
1.
0/
00
01
02
03
0B
zC
zD
zE
0F
0G
0H
0I
0J
0K
0L
0M
0N
0O
1P
0Q
0R
0S
0T
0U
0V
1>
1?
1@
0A
04
05
06
07
08
09
0:
0;
0<
0=
$end
#30000
1!
1/
1H
1A
1I
#60000
0!
0/
0H
0A
0I
#90000
1!
1/
1H
1A
1I
#100000
1"
11
1J
1N
0P
1Q
#120000
0!
0/
0H
0A
0I
#150000
1!
1/
1H
1A
1I
1O
1R
1S
1P
#180000
0!
0/
0H
0A
0I
#210000
1!
1/
1H
1A
1I
1T
1F
12
1#
#240000
0!
0/
0H
0A
0I
#250000
1%
10
1K
1L
0N
0P
#270000
1!
1/
1H
1A
1I
1M
0O
1P
1U
#300000
0!
0/
0H
0A
0I
#320000
0%
00
0K
0L
1N
0P
#330000
1!
1/
1H
1A
1I
0M
1O
1V
1G
1P
0U
13
1$
#360000
0!
0/
0H
0A
0I
#390000
1!
1/
1H
1A
1I
0V
0G
03
0$
#420000
0!
0/
0H
0A
0I
#450000
1!
1/
1H
1A
1I
#470000
0"
01
0J
0N
0Q
#480000
0!
0/
0H
0A
0I
#510000
1!
1/
1H
1A
1I
0O
0R
0S
#540000
0!
0/
0H
0A
0I
#570000
1!
1/
1H
1A
1I
0T
0F
02
0#
#600000
0!
0/
0H
0A
0I
#630000
1!
1/
1H
1A
1I
#660000
0!
0/
0H
0A
0I
#690000
1!
1/
1H
1A
1I
#720000
0!
0/
0H
0A
0I
#750000
1!
1/
1H
1A
1I
#780000
0!
0/
0H
0A
0I
#810000
1!
1/
1H
1A
1I
#840000
0!
0/
0H
0A
0I
#870000
1!
1/
1H
1A
1I
#900000
0!
0/
0H
0A
0I
#930000
1!
1/
1H
1A
1I
#960000
0!
0/
0H
0A
0I
#990000
1!
1/
1H
1A
1I
