semaforo/simulation/qsim/semaforo.msim.vcd
$comment
	File created using the following command:
		vcd file semaforo.msim.vcd -direction
$end
$date
	Tue Oct 13 17:34:36 2020
$end
$version
	ModelSim Version 2020.1
$end
$timescale
	1ps
$end

$scope module semaforo_vhd_vec_tst $end
$var wire 1 ! A $end
$var wire 1 " clk $end
$var wire 1 # R $end
$var wire 1 $ V $end

$scope module i1 $end
$var wire 1 % gnd $end
$var wire 1 & vcc $end
$var wire 1 ' unknown $end
$var wire 1 ( devoe $end
$var wire 1 ) devclrn $end
$var wire 1 * devpor $end
$var wire 1 + ww_devoe $end
$var wire 1 , ww_devclrn $end
$var wire 1 - ww_devpor $end
$var wire 1 . ww_clk $end
$var wire 1 / ww_R $end
$var wire 1 0 ww_A $end
$var wire 1 1 ww_V $end
$var wire 1 2 \~QUARTUS_CREATED_ADC1~_CHSEL_bus\ [4] $end
$var wire 1 3 \~QUARTUS_CREATED_ADC1~_CHSEL_bus\ [3] $end
$var wire 1 4 \~QUARTUS_CREATED_ADC1~_CHSEL_bus\ [2] $end
$var wire 1 5 \~QUARTUS_CREATED_ADC1~_CHSEL_bus\ [1] $end
$var wire 1 6 \~QUARTUS_CREATED_ADC1~_CHSEL_bus\ [0] $end
$var wire 1 7 \~QUARTUS_CREATED_ADC2~_CHSEL_bus\ [4] $end
$var wire 1 8 \~QUARTUS_CREATED_ADC2~_CHSEL_bus\ [3] $end
$var wire 1 9 \~QUARTUS_CREATED_ADC2~_CHSEL_bus\ [2] $end
$var wire 1 : \~QUARTUS_CREATED_ADC2~_CHSEL_bus\ [1] $end
$var wire 1 ; \~QUARTUS_CREATED_ADC2~_CHSEL_bus\ [0] $end
$var wire 1 < \clk~inputclkctrl_INCLK_bus\ [3] $end
$var wire 1 = \clk~inputclkctrl_INCLK_bus\ [2] $end
$var wire 1 > \clk~inputclkctrl_INCLK_bus\ [1] $end
$var wire 1 ? \clk~inputclkctrl_INCLK_bus\ [0] $end
$var wire 1 @ \~QUARTUS_CREATED_GND~I_combout\ $end
$var wire 1 A \~QUARTUS_CREATED_UNVM~~busy\ $end
$var wire 1 B \~QUARTUS_CREATED_ADC1~~eoc\ $end
$var wire 1 C \~QUARTUS_CREATED_ADC2~~eoc\ $end
$var wire 1 D \R~output_o\ $end
$var wire 1 E \A~output_o\ $end
$var wire 1 F \V~output_o\ $end
$var wire 1 G \clk~input_o\ $end
$var wire 1 H \clk~inputclkctrl_outclk\ $end
$var wire 1 I \Selector1~0_combout\ $end
$var wire 1 J \Selector4~0_combout\ $end
$var wire 1 K \Selector4~1_combout\ $end
$var wire 1 L \state.Verde~q\ $end
$var wire 1 M \Selector0~0_combout\ $end
$var wire 1 N \Selector2~0_combout\ $end
$var wire 1 O \Selector5~0_combout\ $end
$var wire 1 P \state.Amarillo~q\ $end
$var wire 1 Q \Selector3~0_combout\ $end
$var wire 1 R \Selector3~1_combout\ $end
$var wire 1 S \state.Rojo~q\ $end
$var wire 1 T \R~reg0feeder_combout\ $end
$var wire 1 U \R~reg0_q\ $end
$var wire 1 V \A~reg0feeder_combout\ $end
$var wire 1 W \A~reg0_q\ $end
$var wire 1 X \V~reg0feeder_combout\ $end
$var wire 1 Y \V~reg0_q\ $end
$var wire 1 Z cnt [2] $end
$var wire 1 [ cnt [1] $end
$var wire 1 \ cnt [0] $end
$var wire 1 ] \ALT_INV_state.Amarillo~q\ $end
$var wire 1 ^ \ALT_INV_R~reg0_q\ $end
$upscope $end
$upscope $end
$enddefinitions $end
#0
$dumpvars
0!
0"
1#
0$
0%
1&
x'
1(
1)
1*
1+
1,
1-
0.
1/
00
01
0@
zA
zB
zC
1D
0E
0F
0G
0H
0I
0J
0K
0L
0M
1N
0O
0P
1Q
0R
0S
0T
0U
0V
0W
0X
0Y
1]
1^
0Z
0[
0\
1<
1=
1>
0?
02
03
04
05
06
07
08
09
0:
0;
$end
#20000
1"
1.
1G
1?
1H
1\
1I
0N
#40000
0"
0.
0G
0?
0H
#60000
1"
1.
1G
1?
1H
1[
0\
1J
1N
#80000
0"
0.
0G
0?
0H
#100000
1"
1.
1G
1?
1H
1\
0I
1M
0N
#120000
0"
0.
0G
0?
0H
#140000
1"
1.
1G
1?
1H
0[
1Z
0\
0J
0M
0Q
1R
1K
#160000
0"
0.
0G
0?
0H
#180000
1"
1.
1G
1?
1H
1L
0Z
1S
1J
1T
1N
1X
#200000
0"
0.
0G
0?
0H
#220000
1"
1.
1G
1?
1H
1\
1U
1Y
0^
1F
1I
0J
0K
0N
0D
11
1K
0/
1$
0#
#240000
0"
0.
0G
0?
0H
#260000
1"
1.
1G
1?
1H
1[
0\
1J
1N
#280000
0"
0.
0G
0?
0H
#300000
1"
1.
1G
1?
1H
1\
0I
0K
0N
1O
#320000
0"
0.
0G
0?
0H
#340000
1"
1.
1G
1?
1H
0[
0L
0\
1P
0]
0R
1V
0X
1N
0O
#360000
0"
0.
0G
0?
0H
#380000
1"
1.
1G
1?
1H
0P
0S
1W
0Y
1]
0F
1E
0J
1Q
0T
1R
0V
01
10
0R
0$
1!
#400000
0"
0.
0G
0?
0H
#420000
1"
1.
1G
1?
1H
1\
0U
0W
1^
0E
1I
0N
1D
00
1/
0!
1#
#440000
0"
0.
0G
0?
0H
#460000
1"
1.
1G
1?
1H
1[
0\
1J
1N
#480000
0"
0.
0G
0?
0H
#500000
1"
1.
1G
1?
1H
1\
0I
1M
0N
#520000
0"
0.
0G
0?
0H
#540000
1"
1.
1G
1?
1H
0[
1Z
0\
0J
0M
0Q
1R
1K
#560000
0"
0.
0G
0?
0H
#580000
1"
1.
1G
1?
1H
1L
0Z
1S
1J
1T
1N
1X
#600000
0"
0.
0G
0?
0H
#620000
1"
1.
1G
1?
1H
1\
1U
1Y
0^
1F
1I
0J
0K
0N
0D
11
1K
0/
1$
0#
#640000
0"
0.
0G
0?
0H
#660000
1"
1.
1G
1?
1H
1[
0\
1J
1N
#680000
0"
0.
0G
0?
0H
#700000
1"
1.
1G
1?
1H
1\
0I
0K
0N
1O
#720000
0"
0.
0G
0?
0H
#740000
1"
1.
1G
1?
1H
0[
0L
0\
1P
0]
0R
1V
0X
1N
0O
#760000
0"
0.
0G
0?
0H
#780000
1"
1.
1G
1?
1H
0P
0S
1W
0Y
1]
0F
1E
0J
1Q
0T
1R
0V
01
10
0R
0$
1!
#800000
0"
0.
0G
0?
0H
#820000
1"
1.
1G
1?
1H
1\
0U
0W
1^
0E
1I
0N
1D
00
1/
0!
1#
#840000
0"
0.
0G
0?
0H
#860000
1"
1.
1G
1?
1H
1[
0\
1J
1N
#880000
0"
0.
0G
0?
0H
#900000
1"
1.
1G
1?
1H
1\
0I
1M
0N
#920000
0"
0.
0G
0?
0H
#940000
1"
1.
1G
1?
1H
0[
1Z
0\
0J
0M
0Q
1R
1K
#960000
0"
0.
0G
0?
0H
#980000
1"
1.
1G
1?
1H
1L
0Z
1S
1J
1T
1N
1X
