paradaEmergencia/simulation/qsim/paradaEmergencia.msim.vcd
$comment
	File created using the following command:
		vcd file paradaEmergencia.msim.vcd -direction
$end
$date
	Thu Sep 24 17:14:55 2020
$end
$version
	ModelSim Version 2020.1
$end
$timescale
	1ps
$end

$scope module paradaemergencia_vhd_vec_tst $end
$var wire 1 ! clk $end
$var wire 1 " paroTotal $end
$var wire 1 # rojo $end

$scope module i1 $end
$var wire 1 $ gnd $end
$var wire 1 % vcc $end
$var wire 1 & unknown $end
$var wire 1 ' devoe $end
$var wire 1 ( devclrn $end
$var wire 1 ) devpor $end
$var wire 1 * ww_devoe $end
$var wire 1 + ww_devclrn $end
$var wire 1 , ww_devpor $end
$var wire 1 - ww_clk $end
$var wire 1 . ww_rojo $end
$var wire 1 / ww_paroTotal $end
$var wire 1 0 \~QUARTUS_CREATED_ADC1~_CHSEL_bus\ [4] $end
$var wire 1 1 \~QUARTUS_CREATED_ADC1~_CHSEL_bus\ [3] $end
$var wire 1 2 \~QUARTUS_CREATED_ADC1~_CHSEL_bus\ [2] $end
$var wire 1 3 \~QUARTUS_CREATED_ADC1~_CHSEL_bus\ [1] $end
$var wire 1 4 \~QUARTUS_CREATED_ADC1~_CHSEL_bus\ [0] $end
$var wire 1 5 \~QUARTUS_CREATED_ADC2~_CHSEL_bus\ [4] $end
$var wire 1 6 \~QUARTUS_CREATED_ADC2~_CHSEL_bus\ [3] $end
$var wire 1 7 \~QUARTUS_CREATED_ADC2~_CHSEL_bus\ [2] $end
$var wire 1 8 \~QUARTUS_CREATED_ADC2~_CHSEL_bus\ [1] $end
$var wire 1 9 \~QUARTUS_CREATED_ADC2~_CHSEL_bus\ [0] $end
$var wire 1 : \clk~inputclkctrl_INCLK_bus\ [3] $end
$var wire 1 ; \clk~inputclkctrl_INCLK_bus\ [2] $end
$var wire 1 < \clk~inputclkctrl_INCLK_bus\ [1] $end
$var wire 1 = \clk~inputclkctrl_INCLK_bus\ [0] $end
$var wire 1 > \~QUARTUS_CREATED_GND~I_combout\ $end
$var wire 1 ? \~QUARTUS_CREATED_UNVM~~busy\ $end
$var wire 1 @ \~QUARTUS_CREATED_ADC1~~eoc\ $end
$var wire 1 A \~QUARTUS_CREATED_ADC2~~eoc\ $end
$var wire 1 B \paroTotal~output_o\ $end
$var wire 1 C \clk~input_o\ $end
$var wire 1 D \clk~inputclkctrl_outclk\ $end
$var wire 1 E \rojo~input_o\ $end
$var wire 1 F \state~0_combout\ $end
$var wire 1 G \state~q\ $end
$var wire 1 H \paroTotal~0_combout\ $end
$var wire 1 I \paroTotal~reg0_q\ $end
$upscope $end
$upscope $end
$enddefinitions $end
#0
$dumpvars
0!
0"
0#
0$
1%
x&
1'
1(
1)
1*
1+
1,
0-
0.
0/
0>
z?
z@
zA
0B
0C
0D
0E
0F
0G
0H
0I
1:
1;
1<
0=
00
01
02
03
04
05
06
07
08
09
$end
#20000
1!
1-
1C
1=
1D
#40000
0!
0-
0C
0=
0D
#60000
1!
1-
1C
1=
1D
#80000
0!
0-
0C
0=
0D
#100000
1!
1-
1C
1=
1D
#120000
0!
0-
0C
0=
0D
#140000
1!
1-
1C
1=
1D
#160000
0!
0-
0C
0=
0D
#180000
1!
1#
1-
1.
1E
1C
1=
1F
1H
1D
1G
1I
1B
1/
1"
#200000
0!
0-
0C
0=
0D
#220000
1!
1-
1C
1=
1D
#240000
0!
0#
0-
0.
0E
0C
0=
0D
#260000
1!
1-
1C
1=
1D
#280000
0!
0-
0C
0=
0D
#300000
1!
1-
1C
1=
1D
#320000
0!
0-
0C
0=
0D
#340000
1!
1-
1C
1=
1D
#360000
0!
0-
0C
0=
0D
#380000
1!
1-
1C
1=
1D
#400000
0!
0-
0C
0=
0D
#420000
1!
1-
1C
1=
1D
#440000
0!
0-
0C
0=
0D
#460000
1!
1-
1C
1=
1D
#480000
0!
0-
0C
0=
0D
#500000
1!
1-
1C
1=
1D
#520000
0!
0-
0C
0=
0D
#540000
1!
1-
1C
1=
1D
#560000
0!
0-
0C
0=
0D
#580000
1!
1-
1C
1=
1D
#600000
0!
0-
0C
0=
0D
#620000
1!
1-
1C
1=
1D
#640000
0!
0-
0C
0=
0D
#660000
1!
1-
1C
1=
1D
#680000
0!
0-
0C
0=
0D
#700000
1!
1-
1C
1=
1D
#720000
0!
0-
0C
0=
0D
#740000
1!
1-
1C
1=
1D
#760000
0!
0-
0C
0=
0D
#780000
1!
1-
1C
1=
1D
#800000
0!
0-
0C
0=
0D
#820000
1!
1-
1C
1=
1D
#840000
0!
0-
0C
0=
0D
#860000
1!
1-
1C
1=
1D
#880000
0!
0-
0C
0=
0D
#900000
1!
1-
1C
1=
1D
#920000
0!
0-
0C
0=
0D
#940000
1!
1-
1C
1=
1D
#960000
0!
0-
0C
0=
0D
#980000
1!
1-
1C
1=
1D
