contador/simulation/qsim/contador.msim.vcd
$comment
	File created using the following command:
		vcd file contador.msim.vcd -direction
$end
$date
	Thu Sep 24 16:38:47 2020
$end
$version
	ModelSim Version 2020.1
$end
$timescale
	1ps
$end

$scope module contador_vhd_vec_tst $end
$var wire 1 ! clk $end
$var wire 1 " Q [3] $end
$var wire 1 # Q [2] $end
$var wire 1 $ Q [1] $end
$var wire 1 % Q [0] $end

$scope module i1 $end
$var wire 1 & gnd $end
$var wire 1 ' vcc $end
$var wire 1 ( unknown $end
$var wire 1 ) devoe $end
$var wire 1 * devclrn $end
$var wire 1 + devpor $end
$var wire 1 , ww_devoe $end
$var wire 1 - ww_devclrn $end
$var wire 1 . ww_devpor $end
$var wire 1 / ww_clk $end
$var wire 1 0 ww_Q [3] $end
$var wire 1 1 ww_Q [2] $end
$var wire 1 2 ww_Q [1] $end
$var wire 1 3 ww_Q [0] $end
$var wire 1 4 \~QUARTUS_CREATED_ADC1~_CHSEL_bus\ [4] $end
$var wire 1 5 \~QUARTUS_CREATED_ADC1~_CHSEL_bus\ [3] $end
$var wire 1 6 \~QUARTUS_CREATED_ADC1~_CHSEL_bus\ [2] $end
$var wire 1 7 \~QUARTUS_CREATED_ADC1~_CHSEL_bus\ [1] $end
$var wire 1 8 \~QUARTUS_CREATED_ADC1~_CHSEL_bus\ [0] $end
$var wire 1 9 \~QUARTUS_CREATED_ADC2~_CHSEL_bus\ [4] $end
$var wire 1 : \~QUARTUS_CREATED_ADC2~_CHSEL_bus\ [3] $end
$var wire 1 ; \~QUARTUS_CREATED_ADC2~_CHSEL_bus\ [2] $end
$var wire 1 < \~QUARTUS_CREATED_ADC2~_CHSEL_bus\ [1] $end
$var wire 1 = \~QUARTUS_CREATED_ADC2~_CHSEL_bus\ [0] $end
$var wire 1 > \clk~inputclkctrl_INCLK_bus\ [3] $end
$var wire 1 ? \clk~inputclkctrl_INCLK_bus\ [2] $end
$var wire 1 @ \clk~inputclkctrl_INCLK_bus\ [1] $end
$var wire 1 A \clk~inputclkctrl_INCLK_bus\ [0] $end
$var wire 1 B \~QUARTUS_CREATED_GND~I_combout\ $end
$var wire 1 C \~QUARTUS_CREATED_UNVM~~busy\ $end
$var wire 1 D \~QUARTUS_CREATED_ADC1~~eoc\ $end
$var wire 1 E \~QUARTUS_CREATED_ADC2~~eoc\ $end
$var wire 1 F \Q[0]~output_o\ $end
$var wire 1 G \Q[1]~output_o\ $end
$var wire 1 H \Q[2]~output_o\ $end
$var wire 1 I \Q[3]~output_o\ $end
$var wire 1 J \clk~input_o\ $end
$var wire 1 K \clk~inputclkctrl_outclk\ $end
$var wire 1 L \R[0]~3_combout\ $end
$var wire 1 M \R[1]~0_combout\ $end
$var wire 1 N \R[2]~1_combout\ $end
$var wire 1 O \R[3]~2_combout\ $end
$var wire 1 P R [3] $end
$var wire 1 Q R [2] $end
$var wire 1 R R [1] $end
$var wire 1 S R [0] $end
$upscope $end
$upscope $end
$enddefinitions $end
#0
$dumpvars
0!
0&
1'
x(
1)
1*
1+
1,
1-
1.
0/
0B
zC
zD
zE
0F
0G
0H
0I
0J
0K
1L
0M
0N
0O
00
01
02
03
0P
0Q
0R
0S
1>
1?
1@
0A
04
05
06
07
08
09
0:
0;
0<
0=
0"
0#
0$
0%
$end
#40000
1!
1/
1J
1A
1K
1S
1F
0L
1M
13
1%
#80000
0!
0/
0J
0A
0K
#120000
1!
1/
1J
1A
1K
0S
1R
1G
0F
1L
12
03
0%
1$
#160000
0!
0/
0J
0A
0K
#200000
1!
1/
1J
1A
1K
1S
1F
0L
0M
1N
13
1%
#240000
0!
0/
0J
0A
0K
#280000
1!
1/
1J
1A
1K
0S
0R
1Q
1H
0G
0F
1L
11
02
03
0%
0$
1#
#320000
0!
0/
0J
0A
0K
#360000
1!
1/
1J
1A
1K
1S
1F
0L
1M
13
1%
#400000
0!
0/
0J
0A
0K
#440000
1!
1/
1J
1A
1K
0S
1R
1G
0F
1L
12
03
0%
1$
#480000
0!
0/
0J
0A
0K
#520000
1!
1/
1J
1A
1K
1S
1F
0L
0M
0N
1O
13
1%
#560000
0!
0/
0J
0A
0K
#600000
1!
1/
1J
1A
1K
0S
0R
0Q
1P
1I
0H
0G
0F
1L
10
01
02
03
0%
0$
0#
1"
#640000
0!
0/
0J
0A
0K
#680000
1!
1/
1J
1A
1K
1S
1F
0L
1M
13
1%
#720000
0!
0/
0J
0A
0K
#760000
1!
1/
1J
1A
1K
0S
1R
1G
0F
1L
12
03
0%
1$
#800000
0!
0/
0J
0A
0K
#840000
1!
1/
1J
1A
1K
1S
1F
0L
0M
1N
13
1%
#880000
0!
0/
0J
0A
0K
#920000
1!
1/
1J
1A
1K
0S
0R
1Q
1H
0G
0F
1L
11
02
03
0%
0$
1#
#960000
0!
0/
0J
0A
0K
