lampara/simulation/qsim/lampara.msim.vcd
$comment
	File created using the following command:
		vcd file lampara.msim.vcd -direction
$end
$date
	Thu Sep 24 17:18:52 2020
$end
$version
	ModelSim Version 2020.1
$end
$timescale
	1ps
$end

$scope module lampara_vhd_vec_tst $end
$var wire 1 ! boton $end
$var wire 1 " clk $end
$var wire 1 # foco $end

$scope module i1 $end
$var wire 1 $ gnd $end
$var wire 1 % vcc $end
$var wire 1 & unknown $end
$var wire 1 ' devoe $end
$var wire 1 ( devclrn $end
$var wire 1 ) devpor $end
$var wire 1 * ww_devoe $end
$var wire 1 + ww_devclrn $end
$var wire 1 , ww_devpor $end
$var wire 1 - ww_clk $end
$var wire 1 . ww_boton $end
$var wire 1 / ww_foco $end
$var wire 1 0 \~QUARTUS_CREATED_ADC1~_CHSEL_bus\ [4] $end
$var wire 1 1 \~QUARTUS_CREATED_ADC1~_CHSEL_bus\ [3] $end
$var wire 1 2 \~QUARTUS_CREATED_ADC1~_CHSEL_bus\ [2] $end
$var wire 1 3 \~QUARTUS_CREATED_ADC1~_CHSEL_bus\ [1] $end
$var wire 1 4 \~QUARTUS_CREATED_ADC1~_CHSEL_bus\ [0] $end
$var wire 1 5 \~QUARTUS_CREATED_ADC2~_CHSEL_bus\ [4] $end
$var wire 1 6 \~QUARTUS_CREATED_ADC2~_CHSEL_bus\ [3] $end
$var wire 1 7 \~QUARTUS_CREATED_ADC2~_CHSEL_bus\ [2] $end
$var wire 1 8 \~QUARTUS_CREATED_ADC2~_CHSEL_bus\ [1] $end
$var wire 1 9 \~QUARTUS_CREATED_ADC2~_CHSEL_bus\ [0] $end
$var wire 1 : \~QUARTUS_CREATED_GND~I_combout\ $end
$var wire 1 ; \~QUARTUS_CREATED_UNVM~~busy\ $end
$var wire 1 < \~QUARTUS_CREATED_ADC1~~eoc\ $end
$var wire 1 = \~QUARTUS_CREATED_ADC2~~eoc\ $end
$var wire 1 > \foco~output_o\ $end
$var wire 1 ? \clk~input_o\ $end
$var wire 1 @ \boton~input_o\ $end
$var wire 1 A \luz~0_combout\ $end
$var wire 1 B \luz~q\ $end
$upscope $end
$upscope $end
$enddefinitions $end
#0
$dumpvars
0!
0"
0#
0$
1%
x&
1'
1(
1)
1*
1+
1,
0-
0.
0/
0:
z;
z<
z=
0>
0?
0@
0A
0B
00
01
02
03
04
05
06
07
08
09
$end
#40000
1"
1-
1?
#80000
0"
0-
0?
#120000
1"
1-
1?
#160000
0"
0-
0?
#190000
1!
1.
1@
1A
#200000
1"
1-
1?
1B
1>
0A
1/
1#
#220000
0!
0.
0@
1A
#240000
0"
0-
0?
#280000
1"
1-
1?
#320000
0"
0-
0?
#360000
1"
1-
1?
#390000
1!
1.
1@
0A
#400000
0"
0-
0?
#420000
0!
0.
0@
1A
#440000
1"
1-
1?
#480000
0"
0-
0?
#520000
1"
1-
1?
#560000
0"
0-
0?
#600000
1"
1-
1?
#640000
0"
0-
0?
#680000
1"
1-
1?
#720000
0"
0-
0?
#760000
1"
1-
1?
#800000
0"
0-
0?
#840000
1"
1-
1?
#880000
0"
0-
0?
#920000
1"
1-
1?
#960000
0"
0-
0?
